<log4j:event logger="DSERVER" timestamp="10" level="DEBUG" thread="1">
<log4j:message><![CDATA[Leaving Logging::add_logging_target (internal impl)]]></log4j:message>
<log4j:NDC><![CDATA[]]></log4j:NDC>
</log4j:event>

<log4j:event logger="DSERVER" timestamp="10" level="DEBUG" thread="1">
<log4j:message><![CDATA[Leaving Logging::add_logging_target]]></log4j:message>
<log4j:NDC><![CDATA[]]></log4j:NDC>
</log4j:event>

<log4j:event logger="DSERVER" timestamp="10" level="DEBUG" thread="1">
<log4j:message><![CDATA[Leaving DServer::add_logging_target]]></log4j:message>
<log4j:NDC><![CDATA[]]></log4j:NDC>
</log4j:event>

<log4j:event logger="DSERVER" timestamp="10" level="DEBUG" thread="1">
<log4j:message><![CDATA[Leaving DeviceClass::command_handler() method]]></log4j:message>
<log4j:NDC><![CDATA[]]></log4j:NDC>
</log4j:event>

<log4j:event logger="DSERVER" timestamp="10" level="DEBUG" thread="1">
<log4j:message><![CDATA[SubDevDiag::set_associated_device() entering ... ]]></log4j:message>
<log4j:NDC><![CDATA[]]></log4j:NDC>
</log4j:event>

<log4j:event logger="DSERVER" timestamp="10" level="DEBUG" thread="1">
<log4j:message><![CDATA[DeviceImpl::command_inout(): leaving method for command AddLoggingTarget]]></log4j:message>
<log4j:NDC><![CDATA[]]></log4j:NDC>
</log4j:event>

<log4j:event logger="DSERVER" timestamp="10" level="DEBUG" thread="1">
<log4j:message><![CDATA[In rel_monitor() DSERVER, ctr = 2, thread = 2]]></log4j:message>
<log4j:NDC><![CDATA[]]></log4j:NDC>
</log4j:event>

<log4j:event logger="DSERVER" timestamp="10" level="DEBUG" thread="1">
<log4j:message><![CDATA[In rel_monitor() DSERVER, ctr = 1, thread = 2]]></log4j:message>
<log4j:NDC><![CDATA[]]></log4j:NDC>
</log4j:event>

<log4j:event logger="DSERVER" timestamp="10" level="DEBUG" thread="1">
<log4j:message><![CDATA[Signalling !]]></log4j:message>
<log4j:NDC><![CDATA[]]></log4j:NDC>
</log4j:event>

<log4j:event logger="DSERVER" timestamp="10" level="DEBUG" thread="1">
<log4j:message><![CDATA[Device_4Impl::command_inout_4 arrived, source = 2, command = QueryClass]]></log4j:message>
<log4j:NDC><![CDATA[]]></log4j:NDC>
</log4j:event>

<log4j:event logger="DSERVER" timestamp="10" level="DEBUG" thread="1">
<log4j:message><![CDATA[Device_2Impl::command_inout_2 arrived, source = 2, command = QueryClass]]></log4j:message>
<log4j:NDC><![CDATA[]]></log4j:NDC>
</log4j:event>

<log4j:event logger="DSERVER" timestamp="10" level="DEBUG" thread="1">
<log4j:message><![CDATA[In get_monitor() cache, thread = 2, ctr = 0]]></log4j:message>
<log4j:NDC><![CDATA[]]></log4j:NDC>
</log4j:event>

<log4j:event logger="DSERVER" timestamp="10" level="DEBUG" thread="1">
<log4j:message><![CDATA[In rel_monitor() cache, ctr = 1, thread = 2]]></log4j:message>
<log4j:NDC><![CDATA[]]></log4j:NDC>
</log4j:event>

<log4j:event logger="DSERVER" timestamp="10" level="DEBUG" thread="1">
<log4j:message><![CDATA[Signalling !]]></log4j:message>
<log4j:NDC><![CDATA[]]></log4j:NDC>
</log4j:event>

<log4j:event logger="DSERVER" timestamp="10" level="DEBUG" thread="1">
<log4j:message><![CDATA[In get_monitor() DSERVER, thread = 2, ctr = 0]]></log4j:message>
<log4j:NDC><![CDATA[]]></log4j:NDC>
</log4j:event>

<log4j:event logger="DSERVER" timestamp="10" level="DEBUG" thread="1">
<log4j:message><![CDATA[In get_monitor() DSERVER, thread = 2, ctr = 1]]></log4j:message>
<log4j:NDC><![CDATA[]]></log4j:NDC>
</log4j:event>

<log4j:event logger="DSERVER" timestamp="10" level="DEBUG" thread="1">
<log4j:message><![CDATA[owner_thread !!]]></log4j:message>
<log4j:NDC><![CDATA[]]></log4j:NDC>
</log4j:event>

<log4j:event logger="DSERVER" timestamp="10" level="DEBUG" thread="1">
<log4j:message><![CDATA[DeviceImpl::command_inout(): command received : QueryClass]]></log4j:message>
<log4j:NDC><![CDATA[]]></log4j:NDC>
</log4j:event>

<log4j:event logger="DSERVER" timestamp="10" level="DEBUG" thread="1">
<log4j:message><![CDATA[SubDevDiag::get_associated_device() entering ... ]]></log4j:message>
<log4j:NDC><![CDATA[]]></log4j:NDC>
</log4j:event>

<log4j:event logger="DSERVER" timestamp="10" level="DEBUG" thread="1">
<log4j:message><![CDATA[SubDevDiag::get_associated_device() found : No associated device name!]]></log4j:message>
<log4j:NDC><![CDATA[]]></log4j:NDC>
</log4j:event>

<log4j:event logger="DSERVER" timestamp="10" level="DEBUG" thread="1">
<log4j:message><![CDATA[SubDevDiag::set_associated_device() entering ... ]]></log4j:message>
<log4j:NDC><![CDATA[]]></log4j:NDC>
</log4j:event>

<log4j:event logger="DSERVER" timestamp="10" level="DEBUG" thread="1">
<log4j:message><![CDATA[Entering DeviceClass::command_handler() method]]></log4j:message>
<log4j:NDC><![CDATA[]]></log4j:NDC>
</log4j:event>

<log4j:event logger="DSERVER" timestamp="10" level="DEBUG" thread="1">
<log4j:message><![CDATA[DevQueryClassCmd::execute(): arrived]]></log4j:message>
<log4j:NDC><![CDATA[]]></log4j:NDC>
</log4j:event>

<log4j:event logger="DSERVER" timestamp="10" level="DEBUG" thread="1">
<log4j:message><![CDATA[In query_class command]]></log4j:message>
<log4j:NDC><![CDATA[]]></log4j:NDC>
</log4j:event>

<log4j:event logger="DSERVER" timestamp="10" level="DEBUG" thread="1">
<log4j:message><![CDATA[Leaving DevQueryClassCmd::execute()]]></log4j:message>
<log4j:NDC><![CDATA[]]></log4j:NDC>
</log4j:event>

<log4j:event logger="DSERVER" timestamp="10" level="DEBUG" thread="1">
<log4j:message><![CDATA[Leaving DeviceClass::command_handler() method]]></log4j:message>
<log4j:NDC><![CDATA[]]></log4j:NDC>
</log4j:event>

<log4j:event logger="DSERVER" timestamp="10" level="DEBUG" thread="1">
<log4j:message><![CDATA[SubDevDiag::set_associated_device() entering ... ]]></log4j:message>
<log4j:NDC><![CDATA[]]></log4j:NDC>
</log4j:event>

<log4j:event logger="DSERVER" timestamp="10" level="DEBUG" thread="1">
<log4j:message><![CDATA[DeviceImpl::command_inout(): leaving method for command QueryClass]]></log4j:message>
<log4j:NDC><![CDATA[]]></log4j:NDC>
</log4j:event>

<log4j:event logger="DSERVER" timestamp="10" level="DEBUG" thread="1">
<log4j:message><![CDATA[In rel_monitor() DSERVER, ctr = 2, thread = 2]]></log4j:message>
<log4j:NDC><![CDATA[]]></log4j:NDC>
</log4j:event>

<log4j:event logger="DSERVER" timestamp="10" level="DEBUG" thread="1">
<log4j:message><![CDATA[In rel_monitor() DSERVER, ctr = 1, thread = 2]]></log4j:message>
<log4j:NDC><![CDATA[]]></log4j:NDC>
</log4j:event>

<log4j:event logger="DSERVER" timestamp="10" level="DEBUG" thread="1">
<log4j:message><![CDATA[Signalling !]]></log4j:message>
<log4j:NDC><![CDATA[]]></log4j:NDC>
</log4j:event>

<log4j:event logger="DSERVER" timestamp="10" level="DEBUG" thread="1">
<log4j:message><![CDATA[Device_4Impl::command_inout_4 arrived, source = 2, command = RemoveLoggingTarget]]></log4j:message>
<log4j:NDC><![CDATA[]]></log4j:NDC>
</log4j:event>

<log4j:event logger="DSERVER" timestamp="10" level="DEBUG" thread="1">
<log4j:message><![CDATA[Device_2Impl::command_inout_2 arrived, source = 2, command = RemoveLoggingTarget]]></log4j:message>
<log4j:NDC><![CDATA[]]></log4j:NDC>
</log4j:event>

<log4j:event logger="DSERVER" timestamp="10" level="DEBUG" thread="1">
<log4j:message><![CDATA[In get_monitor() cache, thread = 2, ctr = 0]]></log4j:message>
<log4j:NDC><![CDATA[]]></log4j:NDC>
</log4j:event>

<log4j:event logger="DSERVER" timestamp="10" level="DEBUG" thread="1">
<log4j:message><![CDATA[In rel_monitor() cache, ctr = 1, thread = 2]]></log4j:message>
<log4j:NDC><![CDATA[]]></log4j:NDC>
</log4j:event>

<log4j:event logger="DSERVER" timestamp="10" level="DEBUG" thread="1">
<log4j:message><![CDATA[Signalling !]]></log4j:message>
<log4j:NDC><![CDATA[]]></log4j:NDC>
</log4j:event>

<log4j:event logger="DSERVER" timestamp="10" level="DEBUG" thread="1">
<log4j:message><![CDATA[In get_monitor() DSERVER, thread = 2, ctr = 0]]></log4j:message>
<log4j:NDC><![CDATA[]]></log4j:NDC>
</log4j:event>

<log4j:event logger="DSERVER" timestamp="10" level="DEBUG" thread="1">
<log4j:message><![CDATA[In get_monitor() DSERVER, thread = 2, ctr = 1]]></log4j:message>
<log4j:NDC><![CDATA[]]></log4j:NDC>
</log4j:event>

<log4j:event logger="DSERVER" timestamp="10" level="DEBUG" thread="1">
<log4j:message><![CDATA[owner_thread !!]]></log4j:message>
<log4j:NDC><![CDATA[]]></log4j:NDC>
</log4j:event>

<log4j:event logger="DSERVER" timestamp="10" level="DEBUG" thread="1">
<log4j:message><![CDATA[DeviceImpl::command_inout(): command received : RemoveLoggingTarget]]></log4j:message>
<log4j:NDC><![CDATA[]]></log4j:NDC>
</log4j:event>

<log4j:event logger="DSERVER" timestamp="10" level="DEBUG" thread="1">
<log4j:message><![CDATA[SubDevDiag::get_associated_device() entering ... ]]></log4j:message>
<log4j:NDC><![CDATA[]]></log4j:NDC>
</log4j:event>

<log4j:event logger="DSERVER" timestamp="10" level="DEBUG" thread="1">
<log4j:message><![CDATA[SubDevDiag::get_associated_device() found : No associated device name!]]></log4j:message>
<log4j:NDC><![CDATA[]]></log4j:NDC>
</log4j:event>

<log4j:event logger="DSERVER" timestamp="10" level="DEBUG" thread="1">
<log4j:message><![CDATA[SubDevDiag::set_associated_device() entering ... ]]></log4j:message>
<log4j:NDC><![CDATA[]]></log4j:NDC>
</log4j:event>

<log4j:event logger="DSERVER" timestamp="10" level="DEBUG" thread="1">
<log4j:message><![CDATA[Entering DeviceClass::command_handler() method]]></log4j:message>
<log4j:NDC><![CDATA[]]></log4j:NDC>
</log4j:event>

<log4j:event logger="DSERVER" timestamp="10" level="DEBUG" thread="1">
<log4j:message><![CDATA[RemoveLoggingTarget::execute(): arrived ]]></log4j:message>
<log4j:NDC><![CDATA[]]></log4j:NDC>
</log4j:event>

<log4j:event logger="DSERVER" timestamp="10" level="DEBUG" thread="1">
<log4j:message><![CDATA[Entering DServer::remove_logging_target]]></log4j:message>
<log4j:NDC><![CDATA[]]></log4j:NDC>
</log4j:event>

<log4j:event logger="DSERVER" timestamp="10" level="DEBUG" thread="1">
<log4j:message><![CDATA[Entering kill_zombie_appenders]]></log4j:message>
<log4j:NDC><![CDATA[]]></log4j:NDC>
</log4j:event>

<log4j:event logger="DSERVER" timestamp="10" level="DEBUG" thread="1">
<log4j:message><![CDATA[In Util::get_device_list]]></log4j:message>
<log4j:NDC><![CDATA[]]></log4j:NDC>
</log4j:event>

<log4j:event logger="DSERVER" timestamp="10" level="DEBUG" thread="1">
<log4j:message><![CDATA[Leaving kill_zombie_appenders]]></log4j:message>
<log4j:NDC><![CDATA[]]></log4j:NDC>
</log4j:event>

<log4j:event logger="DSERVER" timestamp="10" level="DEBUG" thread="1">
<log4j:message><![CDATA[Entering Logging::remove_logging_target]]></log4j:message>
<log4j:NDC><![CDATA[]]></log4j:NDC>
</log4j:event>

<log4j:event logger="DSERVER" timestamp="10" level="DEBUG" thread="1">
<log4j:message><![CDATA[Input string = DSERVER]]></log4j:message>
<log4j:NDC><![CDATA[]]></log4j:NDC>
</log4j:event>

<log4j:event logger="DSERVER" timestamp="10" level="DEBUG" thread="1">
<log4j:message><![CDATA[Input string = file::FILE]]></log4j:message>
<log4j:NDC><![CDATA[]]></log4j:NDC>
</log4j:event>

<log4j:event logger="DSERVER" timestamp="10" level="DEBUG" thread="1">
<log4j:message><![CDATA[In Util::get_device_list]]></log4j:message>
<log4j:NDC><![CDATA[]]></log4j:NDC>
</log4j:event>

<log4j:event logger="DSERVER" timestamp="10" level="DEBUG" thread="1">
<log4j:message><![CDATA[Logging::get_target_type_and_name (input file::FILE)]]></log4j:message>
<log4j:NDC><![CDATA[]]></log4j:NDC>
</log4j:event>

<log4j:event logger="DSERVER" timestamp="10" level="DEBUG" thread="1">
<log4j:message><![CDATA[Logging::get_target_type_and_name (output file FILE)]]></log4j:message>
<log4j:NDC><![CDATA[]]></log4j:NDC>
</log4j:event>

<log4j:event logger="DSERVER" timestamp="10" level="DEBUG" thread="1">
<log4j:message><![CDATA[removing target file::FILE from DSERVER]]></log4j:message>
<log4j:NDC><![CDATA[]]></log4j:NDC>
</log4j:event>
